<?xml version="1.0" encoding="UTF-8" standalone="no"?>
<svg
   xmlns:dc="http://purl.org/dc/elements/1.1/"
   xmlns:cc="http://creativecommons.org/ns#"
   xmlns:rdf="http://www.w3.org/1999/02/22-rdf-syntax-ns#"
   xmlns:svg="http://www.w3.org/2000/svg"
   xmlns="http://www.w3.org/2000/svg"
   xmlns:xlink="http://www.w3.org/1999/xlink"
   xmlns:sodipodi="http://sodipodi.sourceforge.net/DTD/sodipodi-0.dtd"
   xmlns:inkscape="http://www.inkscape.org/namespaces/inkscape"
   width="210mm"
   height="297mm"
   viewBox="0 0 210 297"
   version="1.1"
   id="svg1539"
   inkscape:version="1.0.2-2 (e86c870879, 2021-01-15)"
   sodipodi:docname="haus_pv.svg">
  <defs
     id="defs1533" />
  <sodipodi:namedview
     id="base"
     pagecolor="#ffffff"
     bordercolor="#666666"
     borderopacity="1.0"
     inkscape:pageopacity="0.0"
     inkscape:pageshadow="2"
     inkscape:zoom="0.35"
     inkscape:cx="400"
     inkscape:cy="560"
     inkscape:document-units="mm"
     inkscape:current-layer="layer1"
     inkscape:document-rotation="0"
     showgrid="false"
     inkscape:window-width="1481"
     inkscape:window-height="997"
     inkscape:window-x="2598"
     inkscape:window-y="38"
     inkscape:window-maximized="0" />
  <metadata
     id="metadata1536">
    <rdf:RDF>
      <cc:Work
         rdf:about="">
        <dc:format>image/svg+xml</dc:format>
        <dc:type
           rdf:resource="http://purl.org/dc/dcmitype/StillImage" />
        <dc:title></dc:title>
      </cc:Work>
    </rdf:RDF>
  </metadata>
  <g
     inkscape:label="Ebene 1"
     inkscape:groupmode="layer"
     id="layer1">
    <image
       width="37.306252"
       height="51.064583"
       preserveAspectRatio="none"
       xlink:href="data:image/png;base64,iVBORw0KGgoAAAANSUhEUgAAAIgAAAC3CAYAAADJlhYqAAAACXBIWXMAAA7DAAAOwwHHb6hkAAAA GXRFWHRTb2Z0d2FyZQB3d3cuaW5rc2NhcGUub3Jnm+48GgAABxhJREFUeJzt3GuIVGUcx/HvGTfX UUuNShPtIhVGVHZRwyzsIlJgdJEMhOwCmUGp2QtvkSVFWb2ojF5k9qKUiIKiogsoZhppVpYZiUVp 2cWiVcvVzdzpxbO6Q+bfnZ1z5v/MzO8D+0Y85/zOs7+ZPXPmeQ7EZQJQqOOfj4Ejyh7FFCXeAYoM ANYDvYDtzlk85IFuwP3AXN8o8UmAtwmvomecs3g5HWgG9gLDnbNE5y5COb4FjnTO4mk6YRy+AXo6 Z4nGYMIrZx9wsXMWbzlgGaEkTzpniUID8BFhQB5yzhKLk4AdQCtwhW8Uf3MJ5fgM6OobJSo3E8bl R+Bo5yxuzgX+BvYAZzlnidErhJK86B3EQzfgS8IA3OOcJVbHAr8Qxmi8c5aKe4Jw4iuBLs5ZYnYV YZyaCPeJ6sJlhAuwv4BTnLNUg0WEkrxLXDc2M9EL2Ew44Vucs1SLnoT7IgVgknOWzL1AONHXvYNU mZHAP4R33VOds2TmakI5fgP6OWepRo8Rxu9DavC67TjgV8IJjnPOUq0agS8IYzjTOUvq3iCc2PPe QarcEKCFcP/ofOcsqbmNUI4fgD7OWWrBbMJ4biDcT6pqJwM7CV/EXeKcpVbkgBWEksx3zlKWHLCc cCKP+0apOYOAPwkvvFG+UTpvBqEcXxFmS0m6JhPG9zvgKOcsJTsD2E2YHTXUOUutSoC3CCVZ6Jyl JI3A54Tgc5yz1Lr+wO+Esb7OOUuHPUIIvJbIZmjXqGsJ470N6Ouc5bAuJNwS3gWc5pylniwhlOQ1 7yCWHsAmQtA7nLPUm97AFsLYT3TOckjPEgK+Rx18LR2hywnTKHYAJzpnOcgYQrgmYKBzlnq2gPAi XUG4DxWFY4CfCcFucM5S77oDXxN+F9OcsxzwMiHQq95BBIDzaJ8MfqZzFm4klGMrdTw9P0IPEH4v n+K4nGQA8Afh2uNKrxDyvxqANYSSzPMIkAOWtgV42iOAHFbxYvALKn3wqbQvttYi43hNw2ExePFi 64sqdVDplOJ3+gWVOGADsBrHv21SsuJrxcwXg0dxdSwlm0gFPm1G9flaSrb/ftWSLHZefIfu7iwO IJnL9I73/nv8H1CDi3bqyFjaF4On9p1Z1N8SSskWkuK37r1pX2x9U7k7kygUz9uZXO7OFlMFM5Wk ZKnM/LuGKprrKCWbTxlPd67K2dJSkuLVB7NL2bB4vcVz6eeSiJxNWAxe0vql26niFVtSspmUsAJy EO2LrUdlGktikQPepwNrqItXjT+afS6JSIeewjCL9udOaLF1/ZmE8RyXmnxyjZTsTUJJFhX/Y/HH nVkOoSQeBz1LLiE8PW86sI6uTCBhn18+cbeX0bTyFNBEA2MbgJ0kFGhkCAkbvPOJs0bChUaBPjSw Mnyb143dJOQosMw1nMSiCwkjOfBhJU8zeba5RpK45PmePIVoFvhKnFQQMakgYlJBxKSCiEkFEZMK IiYVREwqiJhUEDGpIGJSQcSkgohJBRGTCiImFURMKoiYVBAxqSBiUkHEpIKIqcE7gLTJM4JCSk+Q 7MJ2drE+jV2lU5DuHE8hxcdFtLKWFjaltr/qsJSEbqnsqZXlGKv0S5HWO8g5pPkE3xx3Qt0VBKCZ hJc6vXWBHsD49OKk/ydmDQnvdHrrVoaTMCbFPNVmO83c2umt8wwk8oKsppn7Or11nqlQ1wWJjj7F iEkFEZMKIiYVREwqiJhUEDGpIGJSQcSkgohJBRGTCiImFURMKoiYNKMsLjm607+M7ftSSC0LkH5B +pJnWBnbn5BakurUjwJbvUMUS7sg17f9SKkSVlCgMaW9rUtpPykVJGErBRansi+AVjamtq9q0Rzz RCk9q13+S89ql45QQcSkgohJBRGTCiImFURMKoiYVBAxqSBiUkHEpIKISQURkwoiJhVETCqImFQQ MakgYlJBxKSCiEkFEZMKIiYVREwqiJhUEDGpIGJSQcSkgohJBRGTCiKmWn7CUI7KvgAKwL4KHq8i arcgeR4EZlTwiGvZzdAKHq8iarcg7VZRYGemR0gYnen+HdV+QRKmsJtPMj1GnqZM9+9IF6liUkHE pIKISQURkwoiJhVETCqImFQQMakgYlJBxKSCiEkFEZMKIiYVREwqiJhUEDGpIGJSQcSkgohJBRGT CiImFURMKkhl3As87B2iM2p/XUy25gGX0kJPYDCw6hD/bxhhrCu50i8VKkh5BgMjaAWgJzDCNU0G VJDyTAHm0MgaYAstjPMOlDYVpDw/AZCjFdgDbHRNkwFdpIpJBRGTCiImFURMKoiYVBAxqSBiUkHE pIKISQURkwoiJhVETCqImFQQMakgYlJBxKSCiEkFEZMKIiYVREwqiJhUEDElAORpBhqBza5p0pTQ hwK9gb3QtrQpO41AC/uXQdSGgUBDcUHyrnEkSv8C/y6HHAZmyBYAAAAASUVORK5CYII= "
       id="image1320"
       x="79.620682"
       y="45.527229"
       inkscape:export-xdpi="96"
       inkscape:export-ydpi="96" />
    <path
       style="fill:none;stroke:#000000;stroke-width:0.270809px;stroke-linecap:butt;stroke-linejoin:miter;stroke-opacity:1"
       d="m 83.854019,58.7564 6.929564,-10.583334 15.245037,1e-6 6.92957,10.58333 z"
       id="path1467"
       inkscape:export-xdpi="96"
       inkscape:export-ydpi="96" />
    <path
       style="fill:none;stroke:#000000;stroke-width:0.264583px;stroke-linecap:butt;stroke-linejoin:miter;stroke-opacity:1"
       d="M 93.114436,48.173066 87.822769,58.756399"
       id="path1469"
       inkscape:export-xdpi="96"
       inkscape:export-ydpi="96" />
    <path
       style="fill:none;stroke:#000000;stroke-width:0.264583px;stroke-linecap:butt;stroke-linejoin:miter;stroke-opacity:1"
       d="M 95.76027,48.173067 93.114437,58.7564"
       id="path1471"
       inkscape:export-xdpi="96"
       inkscape:export-ydpi="96" />
    <path
       style="fill:none;stroke:#000000;stroke-width:0.264583px;stroke-linecap:butt;stroke-linejoin:miter;stroke-opacity:1"
       d="M 103.69777,48.173066 108.98944,58.7564"
       id="path1473"
       inkscape:export-xdpi="96"
       inkscape:export-ydpi="96" />
    <path
       style="fill:none;stroke:#000000;stroke-width:0.264583px;stroke-linecap:butt;stroke-linejoin:miter;stroke-opacity:1"
       d="m 101.05193,48.173066 2.64584,10.583333"
       id="path1475"
       inkscape:export-xdpi="96"
       inkscape:export-ydpi="96" />
    <path
       style="fill:none;stroke:#000000;stroke-width:0.264583px;stroke-linecap:butt;stroke-linejoin:miter;stroke-opacity:1"
       d="M 98.406102,48.173065 V 58.756399"
       id="path1477"
       inkscape:export-xdpi="96"
       inkscape:export-ydpi="96" />
    <path
       style="fill:none;stroke:#000000;stroke-width:0.264583px;stroke-linecap:butt;stroke-linejoin:miter;stroke-opacity:1"
       d="m 89.145686,50.818899 18.520834,10e-7"
       id="path1479"
       inkscape:export-xdpi="96"
       inkscape:export-ydpi="96" />
    <path
       style="fill:none;stroke:#000000;stroke-width:0.264583px;stroke-linecap:butt;stroke-linejoin:miter;stroke-opacity:1"
       d="m 86.499853,54.787649 23.812497,10e-7"
       id="path1481"
       inkscape:export-xdpi="96"
       inkscape:export-ydpi="96" />
  </g>
</svg>
