<?xml version="1.0" encoding="UTF-8" standalone="no"?>
<svg
   xmlns:dc="http://purl.org/dc/elements/1.1/"
   xmlns:cc="http://creativecommons.org/ns#"
   xmlns:rdf="http://www.w3.org/1999/02/22-rdf-syntax-ns#"
   xmlns:svg="http://www.w3.org/2000/svg"
   xmlns="http://www.w3.org/2000/svg"
   xmlns:sodipodi="http://sodipodi.sourceforge.net/DTD/sodipodi-0.dtd"
   xmlns:inkscape="http://www.inkscape.org/namespaces/inkscape"
   viewBox="0 0 40.51408 68.584015"
   x="0px"
   y="0px"
   version="1.1"
   id="svg20"
   sodipodi:docname="wind_power.svg"
   width="40.51408"
   height="68.584015"
   inkscape:version="1.0.2 (e86c870879, 2021-01-15)">
  <metadata
     id="metadata26">
    <rdf:RDF>
      <cc:Work
         rdf:about="">
        <dc:format>image/svg+xml</dc:format>
        <dc:type
           rdf:resource="http://purl.org/dc/dcmitype/StillImage" />
        <dc:title>20 House</dc:title>
      </cc:Work>
    </rdf:RDF>
  </metadata>
  <defs
     id="defs24" />
  <sodipodi:namedview
     pagecolor="#ffffff"
     bordercolor="#666666"
     borderopacity="1"
     objecttolerance="10"
     gridtolerance="10"
     guidetolerance="10"
     inkscape:pageopacity="0"
     inkscape:pageshadow="2"
     inkscape:window-width="2540"
     inkscape:window-height="1357"
     id="namedview22"
     showgrid="true"
     inkscape:zoom="13.241426"
     inkscape:cx="0.5779231"
     inkscape:cy="26.197837"
     inkscape:window-x="10"
     inkscape:window-y="44"
     inkscape:window-maximized="0"
     inkscape:current-layer="svg20"
     inkscape:document-rotation="0"
     fit-margin-top="0"
     fit-margin-left="0"
     fit-margin-right="0"
     fit-margin-bottom="0"
     showguides="false"
     inkscape:snap-global="true">
    <inkscape:grid
       type="xygrid"
       id="grid836"
       originx="-36.477665"
       originy="-76.915989"
       dotted="false" />
  </sodipodi:namedview>
  <title
     id="title2">20 House</title>
  <g
     id="g935"
     transform="translate(-33.857387,-10.682751)">
    <path
       style="fill:none;stroke:#000000;stroke-width:1px;stroke-linecap:round;stroke-linejoin:round;stroke-opacity:1"
       d="m 57.413796,30.507943 c -0.120118,-7.279119 4.210455,-19.577335 5.176381,-19.318516 0.965926,0.258819 -1.305602,9.509134 -1.432796,13.074674 l -2.777659,6.502662 z"
       id="path848"
       sodipodi:nodetypes="csccc" />
    <circle
       style="fill:none;stroke:#000000;stroke-linejoin:round;paint-order:stroke fill markers"
       id="path850"
       cx="63.820675"
       cy="18.057619"
       r="1.5"
       transform="rotate(15)" />
    <path
       style="fill:none;stroke:#000000;stroke-width:1px;stroke-linecap:round;stroke-linejoin:round;stroke-opacity:1"
       d="m 59.684772,36.129738 c 6.363962,3.535534 14.849243,13.435028 14.142136,14.142135 -0.707106,0.707107 -7.58235,-5.885251 -10.606602,-7.778174 l -4.24264,-5.656855 z"
       id="path871"
       sodipodi:nodetypes="csccc" />
    <path
       style="fill:none;stroke:#000000;stroke-width:1px;stroke-linecap:round;stroke-linejoin:round;stroke-opacity:1"
       d="m 53.680667,35.285564 c -6.243842,3.743585 -19.059697,6.142307 -19.318516,5.176381 -0.258819,-0.965926 8.887953,-3.623882 12.039397,-5.296499 l 7.0203,-0.845808 z"
       id="path881"
       sodipodi:nodetypes="csccc" />
  </g>
  <path
     style="fill:none;stroke:#000000;stroke-width:1px;stroke-linecap:round;stroke-linejoin:round;stroke-opacity:1"
     d="m 23.522335,68.084012 h 1 l -1,-41 h -1 l -1,41 z"
     id="path942"
     sodipodi:nodetypes="cccccc" />
</svg>
